John’s Weight Gain Delimma
…
After running through some analysis of the data, we can see that there were many other factors that influenced the weight of the participants in this study. Things like age, household income, and height all had a hand in determining the weight of the participants in the study. After meeting with his Primary care Doctor, John should consider some lifestyle changes that could help him reduce his weight.

Exploratory Data Analysis

library(pacman)

p_load(NHANES, tidyverse, tidymodels, skimr, naniar)

Step 1: Access the data.

data(NHANES)

NHANES

# A tibble: 10,000 × 76
      ID SurveyYr Gender   Age AgeDecade AgeMonths Race1 Race3 Education   
   <int> <fct>    <fct>  <int> <fct>         <int> <fct> <fct> <fct>       
 1 51624 2009_10  male      34 " 30-39"        409 White <NA>  High School 
 2 51624 2009_10  male      34 " 30-39"        409 White <NA>  High School 
 3 51624 2009_10  male      34 " 30-39"        409 White <NA>  High School 
 4 51625 2009_10  male       4 " 0-9"           49 Other <NA>  <NA>        
 5 51630 2009_10  female    49 " 40-49"        596 White <NA>  Some College
 6 51638 2009_10  male       9 " 0-9"          115 White <NA>  <NA>        
 7 51646 2009_10  male       8 " 0-9"          101 White <NA>  <NA>        
 8 51647 2009_10  female    45 " 40-49"        541 White <NA>  College Grad
 9 51647 2009_10  female    45 " 40-49"        541 White <NA>  College Grad
10 51647 2009_10  female    45 " 40-49"        541 White <NA>  College Grad
# ℹ 9,990 more rows
# ℹ 67 more variables: MaritalStatus <fct>, HHIncome <fct>, HHIncomeMid <int>,
#   Poverty <dbl>, HomeRooms <int>, HomeOwn <fct>, Work <fct>, Weight <dbl>,
#   Length <dbl>, HeadCirc <dbl>, Height <dbl>, BMI <dbl>,
#   BMICatUnder20yrs <fct>, BMI_WHO <fct>, Pulse <int>, BPSysAve <int>,
#   BPDiaAve <int>, BPSys1 <int>, BPDia1 <int>, BPSys2 <int>, BPDia2 <int>,
#   BPSys3 <int>, BPDia3 <int>, Testosterone <dbl>, DirectChol <dbl>, …
…
NHANES_weight <- NHANES |> select(-ID, -SleepTrouble) |>
  select( Weight, everything()) |>
  drop_na(Weight)
NHANES_weight 

# A tibble: 9,922 × 74
   Weight SurveyYr Gender   Age AgeDecade AgeMonths Race1 Race3 Education   
    <dbl> <fct>    <fct>  <int> <fct>         <int> <fct> <fct> <fct>       
 1   87.4 2009_10  male      34 " 30-39"        409 White <NA>  High School 
 2   87.4 2009_10  male      34 " 30-39"        409 White <NA>  High School 
 3   87.4 2009_10  male      34 " 30-39"        409 White <NA>  High School 
 4   17   2009_10  male       4 " 0-9"           49 Other <NA>  <NA>        
 5   86.7 2009_10  female    49 " 40-49"        596 White <NA>  Some College
 6   29.8 2009_10  male       9 " 0-9"          115 White <NA>  <NA>        
 7   35.2 2009_10  male       8 " 0-9"          101 White <NA>  <NA>        
 8   75.7 2009_10  female    45 " 40-49"        541 White <NA>  College Grad
 9   75.7 2009_10  female    45 " 40-49"        541 White <NA>  College Grad
10   75.7 2009_10  female    45 " 40-49"        541 White <NA>  College Grad
# ℹ 9,912 more rows
# ℹ 65 more variables: MaritalStatus <fct>, HHIncome <fct>, HHIncomeMid <int>,
#   Poverty <dbl>, HomeRooms <int>, HomeOwn <fct>, Work <fct>, Length <dbl>,
#   HeadCirc <dbl>, Height <dbl>, BMI <dbl>, BMICatUnder20yrs <fct>,
#   BMI_WHO <fct>, Pulse <int>, BPSysAve <int>, BPDiaAve <int>, BPSys1 <int>,
#   BPDia1 <int>, BPSys2 <int>, BPDia2 <int>, BPSys3 <int>, BPDia3 <int>,
#   Testosterone <dbl>, DirectChol <dbl>, TotChol <dbl>, UrineVol1 <int>, …

Summarize the y-variable. This is the Null Model.

NHANES_weight  |> group_by(Weight) |>
  summarize(n = n()) |>
  mutate(freq = n / sum(n))

# A tibble: 1,290 × 3
   Weight     n     freq
    <dbl> <int>    <dbl>
 1    2.8     1 0.000101
 2    3.6     1 0.000101
 3    4.2     1 0.000101
 4    4.5     2 0.000202
 5    4.6     1 0.000101
 6    4.7     2 0.000202
 7    4.8     4 0.000403
 8    5.1     2 0.000202
 9    5.3     2 0.000202
10    5.4     2 0.000202
# ℹ 1,280 more rows
…
Make the first split with 80% of the data being in the trainning data set.

NHANES_weight_split <- initial_split(NHANES_weight, prop = 0.8)
NHANES_weight_split 

<Training/Testing/Total>
<7937/1985/9922>

Training data.

NHANES_weight_split |>
  training() 

# A tibble: 7,937 × 74
   Weight SurveyYr Gender   Age AgeDecade AgeMonths Race1    Race3 Education   
    <dbl> <fct>    <fct>  <int> <fct>         <int> <fct>    <fct> <fct>       
 1   11.7 2009_10  female     2 " 0-9"           32 Other    <NA>  <NA>        
 2   79.9 2011_12  female    20 " 20-29"         NA Black    Black Some College
 3   17.6 2009_10  male       6 " 0-9"           73 Other    <NA>  <NA>        
 4   65.3 2009_10  female    37 " 30-39"        446 White    <NA>  College Grad
 5   71.3 2011_12  female    66 " 60-69"         NA White    White High School 
 6  106.  2009_10  male      13 " 10-19"        159 Black    <NA>  <NA>        
 7   49.1 2009_10  female    51 " 50-59"        616 Hispanic <NA>  Some College
 8   27.3 2009_10  female     5 " 0-9"           68 Black    <NA>  <NA>        
 9  139.  2009_10  male      53 " 50-59"        639 White    <NA>  Some College
10   57.1 2009_10  female    41 " 40-49"        497 White    <NA>  High School 
# ℹ 7,927 more rows
# ℹ 65 more variables: MaritalStatus <fct>, HHIncome <fct>, HHIncomeMid <int>,
#   Poverty <dbl>, HomeRooms <int>, HomeOwn <fct>, Work <fct>, Length <dbl>,
#   HeadCirc <dbl>, Height <dbl>, BMI <dbl>, BMICatUnder20yrs <fct>,
#   BMI_WHO <fct>, Pulse <int>, BPSysAve <int>, BPDiaAve <int>, BPSys1 <int>,
#   BPDia1 <int>, BPSys2 <int>, BPDia2 <int>, BPSys3 <int>, BPDia3 <int>,
#   Testosterone <dbl>, DirectChol <dbl>, TotChol <dbl>, UrineVol1 <int>, …
…
NHANES_weight_split |>
  testing() 

# A tibble: 1,985 × 74
   Weight SurveyYr Gender   Age AgeDecade AgeMonths Race1 Race3 Education   
    <dbl> <fct>    <fct>  <int> <fct>         <int> <fct> <fct> <fct>       
 1   87.4 2009_10  male      34 " 30-39"        409 White <NA>  High School 
 2   68   2009_10  male      66 " 60-69"        795 White <NA>  Some College
 3   38.6 2009_10  female    10 " 10-19"        123 White <NA>  <NA>        
 4   57.5 2009_10  female    56 " 50-59"        677 White <NA>  College Grad
 5   40.1 2009_10  male       8 " 0-9"          104 White <NA>  <NA>        
 6   62.8 2009_10  female    64 " 60-69"        771 Other <NA>  8th Grade   
 7   54.3 2009_10  female    59 " 50-59"        718 Other <NA>  8th Grade   
 8   57.7 2009_10  male      12 " 10-19"        152 Other <NA>  <NA>        
 9   88.9 2009_10  male      16 " 10-19"        199 White <NA>  <NA>        
10   78.2 2009_10  male      28 " 20-29"        336 Black <NA>  Some College
# ℹ 1,975 more rows
# ℹ 65 more variables: MaritalStatus <fct>, HHIncome <fct>, HHIncomeMid <int>,
#   Poverty <dbl>, HomeRooms <int>, HomeOwn <fct>, Work <fct>, Length <dbl>,
#   HeadCirc <dbl>, Height <dbl>, BMI <dbl>, BMICatUnder20yrs <fct>,
#   BMI_WHO <fct>, Pulse <int>, BPSysAve <int>, BPDiaAve <int>, BPSys1 <int>,
#   BPDia1 <int>, BPSys2 <int>, BPDia2 <int>, BPSys3 <int>, BPDia3 <int>,
#   Testosterone <dbl>, DirectChol <dbl>, TotChol <dbl>, UrineVol1 <int>, …
…
Create the recipe() for applying the preprocessing using prep(). Note the use of step_nzv(), which removes any columns that have very low variability, and the use of the step_impute_median() function, which fills in the cells that are missing with the median of the column.

NHANES_weight_recipe <- training(NHANES_weight_split) |>
  recipe(Weight ~ .) |>
  step_nzv(all_predictors()) |>
  step_impute_knn(all_predictors()) |>
  step_corr(all_numeric()) |>
  prep()

summary(NHANES_weight_recipe)

# A tibble: 65 × 4
   variable      type      role      source  
   <chr>         <list>    <chr>     <chr>   
 1 SurveyYr      <chr [3]> predictor original
 2 Gender        <chr [3]> predictor original
 3 Age           <chr [2]> predictor original
 4 AgeDecade     <chr [3]> predictor original
 5 Race1         <chr [3]> predictor original
 6 Race3         <chr [3]> predictor original
 7 Education     <chr [3]> predictor original
 8 MaritalStatus <chr [3]> predictor original
 9 HHIncome      <chr [3]> predictor original
10 HHIncomeMid   <chr [2]> predictor original
# ℹ 55 more rows
…
Note that the variable Weight is moved to the last column of the dataset.

The same thing above is going to happen but its just going to happen with Weight.

We “bake” the receipe into the Training data to see what the preprocesing does to the data. We do the same for the Testing data.

NHANES_weight_training <- NHANES_weight_recipe |>
  bake(training(NHANES_weight_split)) 

NHANES_weight_training

# A tibble: 7,937 × 65
   SurveyYr Gender   Age AgeDecade Race1  Race3 Education MaritalStatus HHIncome
   <fct>    <fct>  <int> <fct>     <fct>  <fct> <fct>     <fct>         <fct>   
 1 2009_10  female     2 " 0-9"    Other  Other College … NeverMarried  " 0-499…
 2 2011_12  female    20 " 20-29"  Black  Black Some Col… NeverMarried  "10000-…
 3 2009_10  male       6 " 0-9"    Other  Asian 8th Grade NeverMarried  "55000-…
 4 2009_10  female    37 " 30-39"  White  White College … Married       "more 9…
 5 2011_12  female    66 " 60-69"  White  White High Sch… Married       "more 9…
 6 2009_10  male      13 " 10-19"  Black  Black High Sch… NeverMarried  "15000-…
 7 2009_10  female    51 " 50-59"  Hispa… White Some Col… Married       "more 9…
 8 2009_10  female     5 " 0-9"    Black  Black High Sch… NeverMarried  "15000-…
 9 2009_10  male      53 " 50-59"  White  White Some Col… Married       "15000-…
10 2009_10  female    41 " 40-49"  White  White High Sch… Widowed       "more 9…
# ℹ 7,927 more rows
# ℹ 56 more variables: HHIncomeMid <int>, HomeRooms <int>, HomeOwn <fct>,
#   Work <fct>, Length <dbl>, HeadCirc <dbl>, Height <dbl>, BMI <dbl>,
#   BMICatUnder20yrs <fct>, BMI_WHO <fct>, Pulse <int>, BPDia1 <int>,
#   BPDia2 <int>, BPSys3 <int>, BPDia3 <int>, Testosterone <dbl>,
#   DirectChol <dbl>, TotChol <dbl>, UrineVol1 <int>, UrineFlow1 <dbl>,
#   UrineVol2 <int>, UrineFlow2 <dbl>, Diabetes <fct>, DiabetesAge <int>, …

NHANES_weight_testing <- NHANES_weight_recipe |>
  bake(testing(NHANES_weight_split)) 

NHANES_weight_testing

# A tibble: 1,985 × 65
   SurveyYr Gender   Age AgeDecade Race1 Race3  Education MaritalStatus HHIncome
   <fct>    <fct>  <int> <fct>     <fct> <fct>  <fct>     <fct>         <fct>   
 1 2009_10  male      34 " 30-39"  White White  High Sch… Married       25000-3…
 2 2009_10  male      66 " 60-69"  White White  Some Col… Married       25000-3…
 3 2009_10  female    10 " 10-19"  White White  9 - 11th… Separated     more 99…
 4 2009_10  female    56 " 50-59"  White White  College … Married       75000-9…
 5 2009_10  male       8 " 0-9"    White White  College … Married       65000-7…
 6 2009_10  female    64 " 60-69"  Other White  8th Grade Widowed       10000-1…
 7 2009_10  female    59 " 50-59"  Other Mexic… 8th Grade Widowed       20000-2…
 8 2009_10  male      12 " 10-19"  Other Asian  Some Col… NeverMarried  35000-4…
 9 2009_10  male      16 " 10-19"  White White  College … Married       more 99…
10 2009_10  male      28 " 20-29"  Black White  Some Col… LivePartner   25000-3…
# ℹ 1,975 more rows
# ℹ 56 more variables: HHIncomeMid <int>, HomeRooms <int>, HomeOwn <fct>,
#   Work <fct>, Length <dbl>, HeadCirc <dbl>, Height <dbl>, BMI <dbl>,
#   BMICatUnder20yrs <fct>, BMI_WHO <fct>, Pulse <int>, BPDia1 <int>,
#   BPDia2 <int>, BPSys3 <int>, BPDia3 <int>, Testosterone <dbl>,
#   DirectChol <dbl>, TotChol <dbl>, UrineVol1 <int>, UrineFlow1 <dbl>,
#   UrineVol2 <int>, UrineFlow2 <dbl>, Diabetes <fct>, DiabetesAge <int>, …
…
Setup the models.

NHANES_weight_lm <- linear_reg() |> 
  set_engine("lm") |>
  set_mode("regression") |>
  fit(Weight ~ ., data = NHANES_weight_training)

predict(NHANES_weight_lm, NHANES_weight_testing)

Warning in predict.lm(object = object$fit, newdata = new_data, type =
"response", : prediction from rank-deficient fit; consider predict(.,
rankdeficient="NA")

# A tibble: 1,985 × 1
   .pred
   <dbl>
 1  90.3
 2  70.1
 3  33.3
 4  56.1
 5  47.9
 6  61.6
 7  51.7
 8  59.2
 9  88.0
10  78.5
# ℹ 1,975 more rows

NHANES_weight_lm |>
  predict(NHANES_weight_testing) |>
  bind_cols(NHANES_weight_testing)

Warning in predict.lm(object = object$fit, newdata = new_data, type =
"response", : prediction from rank-deficient fit; consider predict(.,
rankdeficient="NA")

# A tibble: 1,985 × 66
   .pred SurveyYr Gender   Age AgeDecade Race1 Race3   Education   MaritalStatus
   <dbl> <fct>    <fct>  <int> <fct>     <fct> <fct>   <fct>       <fct>        
 1  90.3 2009_10  male      34 " 30-39"  White White   High School Married      
 2  70.1 2009_10  male      66 " 60-69"  White White   Some Colle… Married      
 3  33.3 2009_10  female    10 " 10-19"  White White   9 - 11th G… Separated    
 4  56.1 2009_10  female    56 " 50-59"  White White   College Gr… Married      
 5  47.9 2009_10  male       8 " 0-9"    White White   College Gr… Married      
 6  61.6 2009_10  female    64 " 60-69"  Other White   8th Grade   Widowed      
 7  51.7 2009_10  female    59 " 50-59"  Other Mexican 8th Grade   Widowed      
 8  59.2 2009_10  male      12 " 10-19"  Other Asian   Some Colle… NeverMarried 
 9  88.0 2009_10  male      16 " 10-19"  White White   College Gr… Married      
10  78.5 2009_10  male      28 " 20-29"  Black White   Some Colle… LivePartner  
# ℹ 1,975 more rows
# ℹ 57 more variables: HHIncome <fct>, HHIncomeMid <int>, HomeRooms <int>,
#   HomeOwn <fct>, Work <fct>, Length <dbl>, HeadCirc <dbl>, Height <dbl>,
#   BMI <dbl>, BMICatUnder20yrs <fct>, BMI_WHO <fct>, Pulse <int>,
#   BPDia1 <int>, BPDia2 <int>, BPSys3 <int>, BPDia3 <int>, Testosterone <dbl>,
#   DirectChol <dbl>, TotChol <dbl>, UrineVol1 <int>, UrineFlow1 <dbl>,
#   UrineVol2 <int>, UrineFlow2 <dbl>, Diabetes <fct>, DiabetesAge <int>, …
…
Step 5: Improve the model.

GLM model using regularization.

Setup the models.

p_load(glmnet)
NHANES_weight_glm <- linear_reg(penalty = 0.001, mixture = 0.5) |> 
  set_engine("glmnet") |>
  set_mode("regression") |>
  fit(Weight ~ ., data = NHANES_weight_training)

predict(NHANES_weight_glm, NHANES_weight_testing)

# A tibble: 1,985 × 1
   .pred
   <dbl>
 1  90.8
 2  70.1
 3  33.8
 4  56.1
 5  47.7
 6  62.5
 7  52.9
 8  59.2
 9  87.8
10  78.8
# ℹ 1,975 more rows

NHANES_weight_glm |>
  predict(NHANES_weight_testing) |>
  bind_cols(NHANES_weight_testing) 

# A tibble: 1,985 × 66
   .pred SurveyYr Gender   Age AgeDecade Race1 Race3   Education   MaritalStatus
   <dbl> <fct>    <fct>  <int> <fct>     <fct> <fct>   <fct>       <fct>        
 1  90.8 2009_10  male      34 " 30-39"  White White   High School Married      
 2  70.1 2009_10  male      66 " 60-69"  White White   Some Colle… Married      
 3  33.8 2009_10  female    10 " 10-19"  White White   9 - 11th G… Separated    
 4  56.1 2009_10  female    56 " 50-59"  White White   College Gr… Married      
 5  47.7 2009_10  male       8 " 0-9"    White White   College Gr… Married      
 6  62.5 2009_10  female    64 " 60-69"  Other White   8th Grade   Widowed      
 7  52.9 2009_10  female    59 " 50-59"  Other Mexican 8th Grade   Widowed      
 8  59.2 2009_10  male      12 " 10-19"  Other Asian   Some Colle… NeverMarried 
 9  87.8 2009_10  male      16 " 10-19"  White White   College Gr… Married      
10  78.8 2009_10  male      28 " 20-29"  Black White   Some Colle… LivePartner  
# ℹ 1,975 more rows
# ℹ 57 more variables: HHIncome <fct>, HHIncomeMid <int>, HomeRooms <int>,
#   HomeOwn <fct>, Work <fct>, Length <dbl>, HeadCirc <dbl>, Height <dbl>,
#   BMI <dbl>, BMICatUnder20yrs <fct>, BMI_WHO <fct>, Pulse <int>,
#   BPDia1 <int>, BPDia2 <int>, BPSys3 <int>, BPDia3 <int>, Testosterone <dbl>,
#   DirectChol <dbl>, TotChol <dbl>, UrineVol1 <int>, UrineFlow1 <dbl>,
#   UrineVol2 <int>, UrineFlow2 <dbl>, Diabetes <fct>, DiabetesAge <int>, …
…
Setup the models.

p_load(ranger)
NHANES_weight_ranger <- rand_forest(trees = 1000) |> 
  set_engine("ranger") |>
  set_mode("regression") |>
  fit(Weight ~ ., data = NHANES_weight_testing)

predict(NHANES_weight_ranger, NHANES_weight_testing)

# A tibble: 1,985 × 1
   .pred
   <dbl>
 1  89.9
 2  68.6
 3  40.6
 4  57.7
 5  39.1
 6  66.3
 7  59.6
 8  58.3
 9  87.3
10  78.3
# ℹ 1,975 more rows

NHANES_weight_ranger |>
  predict(NHANES_weight_testing) |>
  bind_cols(NHANES_weight_testing) 

# A tibble: 1,985 × 66
   .pred SurveyYr Gender   Age AgeDecade Race1 Race3   Education   MaritalStatus
   <dbl> <fct>    <fct>  <int> <fct>     <fct> <fct>   <fct>       <fct>        
 1  89.9 2009_10  male      34 " 30-39"  White White   High School Married      
 2  68.6 2009_10  male      66 " 60-69"  White White   Some Colle… Married      
 3  40.6 2009_10  female    10 " 10-19"  White White   9 - 11th G… Separated    
 4  57.7 2009_10  female    56 " 50-59"  White White   College Gr… Married      
 5  39.1 2009_10  male       8 " 0-9"    White White   College Gr… Married      
 6  66.3 2009_10  female    64 " 60-69"  Other White   8th Grade   Widowed      
 7  59.6 2009_10  female    59 " 50-59"  Other Mexican 8th Grade   Widowed      
 8  58.3 2009_10  male      12 " 10-19"  Other Asian   Some Colle… NeverMarried 
 9  87.3 2009_10  male      16 " 10-19"  White White   College Gr… Married      
10  78.3 2009_10  male      28 " 20-29"  Black White   Some Colle… LivePartner  
# ℹ 1,975 more rows
# ℹ 57 more variables: HHIncome <fct>, HHIncomeMid <int>, HomeRooms <int>,
#   HomeOwn <fct>, Work <fct>, Length <dbl>, HeadCirc <dbl>, Height <dbl>,
#   BMI <dbl>, BMICatUnder20yrs <fct>, BMI_WHO <fct>, Pulse <int>,
#   BPDia1 <int>, BPDia2 <int>, BPSys3 <int>, BPDia3 <int>, Testosterone <dbl>,
#   DirectChol <dbl>, TotChol <dbl>, UrineVol1 <int>, UrineFlow1 <dbl>,
#   UrineVol2 <int>, UrineFlow2 <dbl>, Diabetes <fct>, DiabetesAge <int>, …
…
